[{"id":1,"first_name":"Teodoro","last_name":"Howard - Gater","email":"thowardgater0@simplemachines.org"},
{"id":2,"first_name":"Dianne","last_name":"Lowy","email":"dlowy1@twitpic.com"},
{"id":3,"first_name":"Beale","last_name":"Capper","email":"bcapper2@newsvine.com"},
{"id":4,"first_name":"Elwin","last_name":"Durtnell","email":"edurtnell3@networkadvertising.org"},
{"id":5,"first_name":"Kellsie","last_name":"Battle","email":"kbattle4@wunderground.com"},
{"id":6,"first_name":"Manolo","last_name":"Hodges","email":"mhodges5@wunderground.com"},
{"id":7,"first_name":"Ginny","last_name":"Wynett","email":"gwynett6@unicef.org"},
{"id":8,"first_name":"Flynn","last_name":"Staniford","email":"fstaniford7@etsy.com"},
{"id":9,"first_name":"Casper","last_name":"Cherrison","email":"ccherrison8@ucoz.ru"},
{"id":10,"first_name":"Tedmund","last_name":"Langran","email":"tlangran9@princeton.edu"},
{"id":11,"first_name":"Dewitt","last_name":"O'Callaghan","email":"docallaghana@liveinternet.ru"},
{"id":12,"first_name":"Brina","last_name":"Crombie","email":"bcrombieb@issuu.com"},
{"id":13,"first_name":"Tasia","last_name":"O'Tuohy","email":"totuohyc@exblog.jp"},
{"id":14,"first_name":"Glynda","last_name":"Olpin","email":"golpind@xrea.com"},
{"id":15,"first_name":"Ezmeralda","last_name":"Jablonski","email":"ejablonskie@ibm.com"},
{"id":16,"first_name":"Stanly","last_name":"Isgate","email":"sisgatef@xinhuanet.com"},
{"id":17,"first_name":"Otha","last_name":"Loosely","email":"olooselyg@phoca.cz"},
{"id":18,"first_name":"Redd","last_name":"Loftie","email":"rloftieh@discuz.net"},
{"id":19,"first_name":"Lilias","last_name":"Lintot","email":"llintoti@ucoz.ru"},
{"id":20,"first_name":"Arline","last_name":"Cassedy","email":"acassedyj@ifeng.com"},
{"id":21,"first_name":"Lilly","last_name":"Craddy","email":"lcraddyk@apple.com"},
{"id":22,"first_name":"Jed","last_name":"Rosenblatt","email":"jrosenblattl@xrea.com"},
{"id":23,"first_name":"Lorette","last_name":"Loukes","email":"lloukesm@google.com.au"},
{"id":24,"first_name":"Godart","last_name":"Huburn","email":"ghuburnn@mapquest.com"},
{"id":25,"first_name":"Dolorita","last_name":"Piesing","email":"dpiesingo@msn.com"},
{"id":26,"first_name":"Emory","last_name":"Quaintance","email":"equaintancep@npr.org"},
{"id":27,"first_name":"Otto","last_name":"Rosini","email":"orosiniq@over-blog.com"},
{"id":28,"first_name":"Debee","last_name":"Barker","email":"dbarkerr@facebook.com"},
{"id":29,"first_name":"Benni","last_name":"Scatcher","email":"bscatchers@fda.gov"},
{"id":30,"first_name":"Gordy","last_name":"Denisovo","email":"gdenisovot@google.ca"}]